{
  "count": 402,
  "next_page": "https://support.optisigns.com/api/v2/help_center/en-us/articles.json?page=2&per_page=30",
  "page": 1,
  "page_count": 14,
  "per_page": 30,
  "previous_page": null,
  "articles": [
    {
      "id": 52523606879251,
      "url": "https://optisignshelp.zendesk.com/api/v2/help_center/en-us/articles/52523606879251.json",
      "html_url": "https://support.optisigns.com/hc/en-us/articles/52523606879251-OptiSigns-Digital-Signage-App-for-Zoom-Adding-Using-and-Removing-the-App",
      "author_id": 41612157768467,
      "comments_disabled": false,
      "draft": false,
      "promoted": false,
      "position": 0,
      "vote_sum": 0,
      "vote_count": 0,
      "section_id": 26324330971411,
      "created_at": "2026-06-11T22:14:17Z",
      "updated_at": "2026-06-11T22:24:43Z",
      "name": "OptiSigns Digital Signage App for Zoom — Adding, Using, and Removing the App",
      "title": "OptiSigns Digital Signage App for Zoom — Adding, Using, and Removing the App",
      "source_locale": "en-us",
      "locale": "en-us",
      "outdated": false,
      "outdated_locales": [],
      "edited_at": "2026-06-11T22:20:27Z",
      "user_segment_id": null,
      "permission_group_id": 787493,
      "content_tag_ids": [],
      "label_names": [
        "noindex"
      ],
      "body": "\u003Ch2\u003EAbout the OptiSigns–Zoom integration\u003C/h2\u003E\n\u003Cp\u003EOptiSigns connects to your Zoom account at the account level, using either the OptiSigns app from the Zoom App Marketplace (admin OAuth) or a Server-to-Server OAuth app created in your own Zoom account. The integration lets OptiSigns turn idle Zoom Rooms into digital signage: it lists the Zoom Rooms on your account and uses the Digital Signage feature built into Zoom Rooms to display your OptiSigns content between meetings. No software is installed on the room device, and meetings are never affected — content clears the moment a meeting starts.\u003C/p\u003E\n\u003Cp\u003EThe app requests the following Zoom scopes:\u003C/p\u003E\n\u003Cul\u003E\n\u003Cli\u003E\n\u003Ccode\u003Ezoom_rooms:read:list_rooms:admin\u003C/code\u003E — Allows OptiSigns to list the Zoom Rooms on your account so they can appear in your OptiSigns screen fleet.\u003C/li\u003E\n\u003Cli\u003E\n\u003Ccode\u003Ezoom_rooms:read:room:admin\u003C/code\u003E — Allows OptiSigns to read a single room's details when refreshing it.\u003C/li\u003E\n\u003Cli\u003E\n\u003Ccode\u003Ezoom_rooms:read:list_devices:admin\u003C/code\u003E — Allows OptiSigns to read room hardware details (model, OS, firmware version) shown in the room's device-info panel.\u003C/li\u003E\n\u003Cli\u003E\n\u003Ccode\u003Ezoom_rooms:read:room_settings:admin\u003C/code\u003E — Allows OptiSigns to read a room's current digital signage settings before making any change.\u003C/li\u003E\n\u003Cli\u003E\n\u003Ccode\u003Ezoom_rooms:update:room_settings:admin\u003C/code\u003E — Allows OptiSigns to assign the signage URL to a room and update its signage settings (layout, mute, display period).\u003C/li\u003E\n\u003Cli\u003E\n\u003Ccode\u003Ezoom_rooms:write:digital_signage_library_contents:admin\u003C/code\u003E — Allows OptiSigns to create (and later remove) its signage entry in your Zoom digital signage content library.\u003C/li\u003E\n\u003Cli\u003E\n\u003Ccode\u003Ezoom_rooms:update:room_control:admin\u003C/code\u003E — Allows OptiSigns to restart the Zoom Rooms app on a room, only when you request it.\u003C/li\u003E\n\u003Cli\u003E\n\u003Ccode\u003Ezoom_rooms:read:alert:admin\u003C/code\u003E — Allows OptiSigns to read room alerts so it can show room health.\u003C/li\u003E\n\u003Cli\u003E\n\u003Ccode\u003Euser:read:user:admin\u003C/code\u003E — Allows OptiSigns to read the connecting admin's basic profile (name, email), used only to label the connection in OptiSigns.\u003C/li\u003E\n\u003C/ul\u003E\n\u003Cp\u003EOptiSigns stores: room name and ID, device model / OS / firmware, online-offline status and last-seen time, and references to the signage content it created. Credentials (OAuth tokens, or the Server App Client Secret) are encrypted at rest and are never written to logs or returned over any API.\u003C/p\u003E\n\u003Cp\u003EOptiSigns never accesses meeting content, recordings, transcripts, chat, calendars, or participant data — the integration requests no meeting scopes at all.\u003C/p\u003E\n\u003Chr\u003E\n\u003Ch2\u003EAdding the app\u003C/h2\u003E\n\u003Cp\u003EIn OptiSigns, sign in at \u003Ca href=\"https://app.optisigns.com\"\u003Eapp.optisigns.com\u003C/a\u003E, then open \u003Cstrong\u003ERoom Integrations → Zoom Rooms\u003C/strong\u003E in the left navigation. There are two ways to connect; both use the same Zoom permissions listed above:\u003C/p\u003E\n\u003Cul\u003E\n\u003Cli\u003E\n\u003Cstrong\u003EMarketplace App\u003C/strong\u003E — Click \u003Cstrong\u003EConnect with Zoom\u003C/strong\u003E. You are redirected to the Zoom App Marketplace to review the requested scopes and approve access (you must be the Zoom Account Owner, or an Admin with Marketplace install permission). After approval, you are returned to OptiSigns and your rooms appear within a few seconds.\u003C/li\u003E\n\u003Cli\u003E\n\u003Cstrong\u003EServer App\u003C/strong\u003E — Create a Server-to-Server OAuth app in the Zoom Marketplace with the scopes listed above, then click \u003Cstrong\u003EAdd Server App\u003C/strong\u003E in OptiSigns and paste the app's Account ID, Client ID, and Client Secret. OptiSigns validates the credentials and pulls your room inventory immediately.\u003C/li\u003E\n\u003C/ul\u003E\n\u003Cp\u003EIf approval fails or you land back in OptiSigns without a successful connection, see Troubleshooting below. For a step-by-step walkthrough with screenshots, see \u003Ca href=\"https://support.optisigns.com/hc/en-us/articles/52069065128723\"\u003EConnect Zoom Rooms to OptiSigns Digital Signage\u003C/a\u003E.\u003C/p\u003E\n\u003Chr\u003E\n\u003Ch2\u003EUsing the integration\u003C/h2\u003E\n\u003Cp\u003EWhen connected, your Zoom Rooms appear in OptiSigns alongside your other screens. Rooms do not consume an OptiSigns license until you activate signage on them. For each room you activate, OptiSigns assigns a signage URL to the room through Zoom's REST API; the Zoom Rooms client then displays your assigned OptiSigns content (images, videos, playlists, schedules) whenever the room is idle, and hides it during meetings.\u003C/p\u003E\n\u003Cp\u003EOptiSigns periodically syncs the room list and room status from Zoom, and pushes signage-setting changes (layout, mute, display period) that you make in OptiSigns. Regarding meetings and call content: OptiSigns does not join, store, or access the content of meetings; video meetings run entirely on Zoom, and Zoom's own terms and policies apply to them.\u003C/p\u003E\n\u003Chr\u003E\n\u003Ch2\u003ERemoving the app — in OptiSigns\u003C/h2\u003E\n\u003Cp\u003EFrom the \u003Cstrong\u003ERoom Integrations → Zoom Rooms\u003C/strong\u003E page, click \u003Cstrong\u003EDisconnect\u003C/strong\u003E and confirm. OptiSigns then:\u003C/p\u003E\n\u003Cul\u003E\n\u003Cli\u003ERevokes the OAuth grant with Zoom's token-revoke endpoint (Marketplace install). For a Server App there is no revoke endpoint on Zoom's side — the short-lived token simply expires; you can also deactivate the app in your Zoom Marketplace to invalidate the credentials immediately.\u003C/li\u003E\n\u003Cli\u003EAttempts to remove the OptiSigns signage entry and the OptiSigns-created library content from each room (best-effort — if a room can't be reached, leftovers can be removed in the Zoom admin portal).\u003C/li\u003E\n\u003Cli\u003EReleases all OptiSigns screen licenses used by Zoom Rooms, removes the synced room records, and stops syncing.\u003C/li\u003E\n\u003Cli\u003EDeletes the locally stored, encrypted Zoom credentials.\u003C/li\u003E\n\u003C/ul\u003E\n\u003Cp\u003ERevocation is best-effort: a failure talking to Zoom does not block the local disconnect, so you can always unlink the app in OptiSigns.\u003C/p\u003E\n\u003Chr\u003E\n\u003Ch2\u003ERemoving the app — in the Zoom App Marketplace\u003C/h2\u003E\n\u003Cp\u003EYou can also uninstall on Zoom's side: go to \u003Cstrong\u003Emarketplace.zoom.us → Manage → Added Apps\u003C/strong\u003E, find \u003Cstrong\u003EOptiSigns\u003C/strong\u003E, and click \u003Cstrong\u003ERemove\u003C/strong\u003E. Zoom notifies OptiSigns through the app deauthorization webhook; OptiSigns then automatically runs the same cleanup as the in-product disconnect for the matching Zoom account — revoking access, removing pushed signage, releasing licenses, and deleting stored credentials — and confirms data-deletion compliance back to Zoom, honoring the data-retention choice you make on Zoom's uninstall screen.\u003C/p\u003E\n\u003Chr\u003E\n\u003Ch2\u003EWhat happens to your data after removal\u003C/h2\u003E\n\u003Cul\u003E\n\u003Cli\u003EAfter you disconnect or deauthorize, OptiSigns revokes (where Zoom supports it) and deletes the locally stored Zoom credentials.\u003C/li\u003E\n\u003Cli\u003EThe synced room inventory and the screens created for activated rooms are removed, and their licenses are released.\u003C/li\u003E\n\u003Cli\u003EOperational audit records (for example, which admin connected or disconnected the integration, and when) may be retained where needed for audit, security, and service-integrity purposes, as described in the \u003Ca href=\"https://www.optisigns.com/privacy-policy\"\u003EOptiSigns Privacy Policy\u003C/a\u003E.\u003C/li\u003E\n\u003Cli\u003EYour OptiSigns content (assets, playlists, schedules) is not affected.\u003C/li\u003E\n\u003C/ul\u003E\n\u003Cp\u003EIf you need account-level deletion or data access requests, contact \u003Ca href=\"mailto:support@optisigns.com\"\u003Esupport@optisigns.com\u003C/a\u003E.\u003C/p\u003E\n\u003Chr\u003E\n\u003Ch2\u003ETroubleshooting\u003C/h2\u003E\n\u003Cul\u003E\n\u003Cli\u003E\n\u003Cstrong\u003EOAuth errors during connect:\u003C/strong\u003E confirm you approved the app in Zoom as the Account Owner (or an Admin with Marketplace install permission) and retry from the OptiSigns Zoom Rooms page. If Zoom shows \"You don't have permission to install this app,\" ask your Zoom Account Owner to pre-approve OptiSigns at the account level.\u003C/li\u003E\n\u003Cli\u003E\n\u003Cstrong\u003ERooms don't appear after connecting:\u003C/strong\u003E click \u003Cstrong\u003ESync now\u003C/strong\u003E on the Zoom Rooms page. Confirm at least one Zoom Room is provisioned in your Zoom admin portal; initial sync can take up to a minute on large accounts.\u003C/li\u003E\n\u003Cli\u003E\n\u003Cstrong\u003ESignage doesn't show on a room:\u003C/strong\u003E ensure Digital Signage is enabled for that room in the Zoom admin portal (\u003Cstrong\u003EAccount Settings → Zoom Rooms → Digital Signage\u003C/strong\u003E). The next OptiSigns push succeeds automatically once enabled.\u003C/li\u003E\n\u003Cli\u003E\n\u003Cstrong\u003EIf disconnect appears stuck:\u003C/strong\u003E retry from OptiSigns first; if the issue persists, contact us with what you observed (without pasting secrets).\u003C/li\u003E\n\u003C/ul\u003E\n\u003Chr\u003E\n\u003Ch2\u003EFAQ\u003C/h2\u003E\n\u003Cp\u003E\u003Cstrong\u003EWhich scopes does OptiSigns request?\u003C/strong\u003E The nine scopes listed under \"About the OptiSigns–Zoom integration\" above. Zoom also displays the full list on the authorization screen before you approve.\u003C/p\u003E\n\u003Cp\u003E\u003Cstrong\u003EDoes OptiSigns access meetings, recordings, or chat?\u003C/strong\u003E No. OptiSigns requests no meeting scopes and does not store or access the audio/video content of calls. It only manages the digital signage shown while a room is idle.\u003C/p\u003E\n\u003Cp\u003E\u003Cstrong\u003ECan I reconnect after removal?\u003C/strong\u003E Yes. Open \u003Cstrong\u003ERoom Integrations → Zoom Rooms\u003C/strong\u003E in OptiSigns and complete the connection again; your rooms re-sync within seconds.\u003C/p\u003E\n\u003Cp\u003E\u003Cstrong\u003EWhat does OptiSigns keep after disconnect?\u003C/strong\u003E Zoom credentials are removed; certain operational records may be retained under the Privacy Policy as noted above.\u003C/p\u003E\n\u003Chr\u003E\n\u003Ch2\u003EReporting a security issue\u003C/h2\u003E\n\u003Cp\u003EEmail \u003Ca href=\"mailto:support@optisigns.com\"\u003Esupport@optisigns.com\u003C/a\u003E with the subject \"Security\" so we can prioritize handling.\u003C/p\u003E\n"
    }
],
"sort_by": "position",
  "sort_order": "asc"
}